<?xml version="1.0" standalone="no"?>
<!DOCTYPE svg PUBLIC "-//W3C//DTD SVG 1.1//EN" "http://www.w3.org/Graphics/SVG/1.1/DTD/svg11.dtd" >
<svg xmlns="http://www.w3.org/2000/svg">
<metadata>Generated by IcoMoon</metadata>
<defs>
<font id="icomoon" horiz-adv-x="512">
<font-face units-per-em="512" ascent="480" descent="-32" />
<missing-glyph horiz-adv-x="512" />
<glyph unicode="&#x20;" d="" horiz-adv-x="256" />
<glyph unicode="&#xe600;" d="M285.015 223.269l111.007 111.007c7.074 7.072 7.074 18.542 0 25.614-7.070 7.076-18.546 7.076-25.616 0l-111.005-111.006-111.010 111.010c-7.069 7.076-18.546 7.076-25.614 0-7.076-7.072-7.076-18.542 0-25.614l111.011-111.010-111.010-111.010c-7.076-7.072-7.076-18.542 0-25.614 3.534-3.539 8.174-5.304 12.807-5.304 4.636 0 9.275 1.766 12.809 5.304l111.010 111.010 111.007-111.007c3.534-3.539 8.168-5.308 12.807-5.308 4.634 0 9.275 1.77 12.807 5.308 7.077 7.072 7.077 18.542 0 25.614l-111.008 111.007z" />
<glyph unicode="&#xe601;" d="M-930.86-1082.703c-8.095 0-15.753 3.784-20.672 10.281l-66.474 87.782c-8.647 11.416-6.395 27.671 5.021 36.319 11.438 8.654 27.682 6.389 36.328-5.019l43.718-57.724 109.958 176.542c7.571 12.142 23.556 15.864 35.726 8.309 12.155-7.571 15.869-23.562 8.298-35.724l-129.889-208.54c-4.511-7.253-12.301-11.812-20.831-12.2-0.4-0.018-0.791-0.025-1.183-0.025zM434.958 334.064c-12.553-5.574-26.067-9.338-40.235-11.028 14.464 8.668 25.572 22.388 30.8 38.747-13.529-8.026-28.527-13.858-44.472-16.995-12.781 13.614-30.99 22.118-51.126 22.118-38.677 0-70.038-31.361-70.038-70.038 0-5.487 0.613-10.844 1.805-15.969-58.209 2.917-109.829 30.814-144.373 73.183-6.016-10.347-9.48-22.38-9.48-35.209 0-24.299 12.369-45.743 31.155-58.3-11.477 0.367-22.27 3.518-31.729 8.765 0-0.303 0-0.596 0-0.887 0-33.93 24.153-62.233 56.186-68.682-5.87-1.598-12.056-2.451-18.451-2.451-4.507 0-8.895 0.438-13.171 1.25 8.906-27.817 34.781-48.069 65.418-48.632-23.969-18.789-54.162-29.988-86.983-29.988-5.649 0-11.227 0.338-16.709 0.983 30.993-19.877 67.808-31.468 107.372-31.468 128.833 0 199.283 106.724 199.283 199.281 0 3.041-0.067 6.060-0.199 9.068 13.68 9.87 25.552 22.206 34.945 36.254z" />
<glyph unicode="&#xe602;" d="M219.162 97.675c-8.095 0-15.753 3.784-20.672 10.281l-66.474 87.779c-8.647 11.416-6.394 27.675 5.021 36.321 11.438 8.654 27.682 6.387 36.328-5.021l43.718-57.725 109.958 176.548c7.57 12.144 23.554 15.861 35.728 8.305 12.154-7.567 15.868-23.562 8.298-35.718l-129.891-208.543c-4.512-7.253-12.301-11.812-20.831-12.2-0.4-0.019-0.791-0.026-1.184-0.026z" />
<glyph unicode="&#xe603;" d="M387.529 250.935h-105.649v105.648c0 13.894-11.259 15.092-25.152 15.092-13.894 0-25.154-1.198-25.154-15.092v-105.648h-105.646c-13.894 0-15.092-11.26-15.092-25.154s1.198-25.154 15.092-25.154h105.648v-105.646c0-13.894 11.26-15.094 25.154-15.094 13.892 0 25.154 1.197 25.154 15.094v105.646h105.646c13.894 0 15.094 11.26 15.094 25.154s-1.198 25.154-15.094 25.154z" />
<glyph unicode="&#xe604;" d="M320.099 317.933h-207.86c-8.162 0-14.805-6.643-14.805-14.805v-207.858c0-8.163 6.643-14.801 14.805-14.801h207.857c8.164 0 14.805 6.641 14.805 14.801v207.858c0.003 8.161-6.641 14.805-14.801 14.805zM308.776 291.803v-163.439h-185.214v163.439h185.214zM361.613 317.933v-158.505h38.027c8.163 0 14.803 6.641 14.803 14.803v207.86c0 8.164-6.644 14.805-14.803 14.805h-207.858c-8.162 0-14.805-6.641-14.805-14.805v-39.773h159.666c0.002 0 24.971 0.725 24.971-24.385zM288.743 143.461v51.676l-30.771 34.255-41.804-56.896-41.804 29.608-30.19-29.031v-29.613h9.287z" />
<glyph unicode="&#xe605;" d="M273.061 378.327c-75.299 0-136.559-61.261-136.559-136.559 0-27.614 8.264-53.322 22.412-74.83l-45.346-41.642c-8.504-7.808-9.069-21.041-1.257-29.541 4.183-4.559 9.923-6.837 15.658-6.767 4.97 0.058 9.932 1.88 13.884 5.505l45.081 41.399c23.516-19.163 53.497-30.683 86.126-30.683 75.3 0 136.557 61.261 136.557 136.559s-61.26 136.559-136.559 136.559zM273.061 147.027c-52.24 0-94.74 42.503-94.74 94.742 0 52.24 42.501 94.74 94.74 94.74 52.24 0 94.74-42.5 94.74-94.74 0.002-52.238-42.502-94.742-94.74-94.742z" />
<glyph unicode="&#xe606;" d="M341.959 367.368h-176.292c-30.626 0-55.541-24.916-55.541-55.541v-176.341c0-30.624 24.917-55.541 55.541-55.541h176.292c30.628 0 55.541 24.918 55.541 55.541v176.341c0 30.626-24.913 55.541-55.541 55.541zM357.9 334.236l6.354 0.033v-48.726l-48.562-0.148-0.164 48.71 42.372 0.131zM212.81 253.152c9.19 12.754 24.124 21.104 41.004 21.104s31.811-8.348 41.006-21.104c6.007-8.317 9.586-18.482 9.586-29.488 0-27.903-22.704-50.591-50.591-50.591s-50.575 22.688-50.575 50.591c-0.002 11.006 3.58 21.171 9.571 29.488zM369.498 135.485c0-15.182-12.341-27.539-27.539-27.539h-176.292c-15.196 0-27.54 12.361-27.54 27.539v117.666h42.901c-3.712-9.108-5.792-19.059-5.792-29.488 0-43.329 35.245-78.611 78.576-78.611 43.331 0 78.576 35.28 78.576 78.611 0 10.429-2.093 20.378-5.791 29.488h42.901l-0.002-117.666z" />
<glyph unicode="&#xe607;" d="M115.907 131.913l28.413 40.593 20.971-12.179 40.589 50.060 31.795-23.676 83.21 96.738 68.324-95.383v-56.152h-273.302zM180.173 260.452c0-14.198-11.51-25.708-25.708-25.708s-25.708 11.51-25.708 25.708c0 14.198 11.51 25.707 25.708 25.707 14.198 0 25.708-11.51 25.708-25.707zM402.664 355.074h-293.459c-11.006 0-20.477-6.718-24.525-16.267-1.352-3.185-2.095-6.685-2.095-10.356v-208.903c0-14.679 11.945-26.62 26.624-26.62h293.462c11.008 0 20.48 6.717 24.529 16.264 1.348 3.185 2.093 6.685 2.093 10.356v208.901c-0.002 14.679-11.947 26.625-26.63 26.625zM407.646 119.548c0-0.688-0.137-1.344-0.391-1.94-0.075-0.183-0.228-0.307-0.324-0.475-0.224-0.392-0.428-0.789-0.745-1.105-0.038-0.036-0.097-0.053-0.139-0.089-0.42-0.397-0.899-0.745-1.443-0.974-0.031-0.014-0.070-0.011-0.103-0.022-0.57-0.224-1.187-0.367-1.837-0.367h-293.457c-2.749 0-4.975 2.223-4.975 4.974v208.903c0 1.797 1.004 3.304 2.434 4.173 0.208 0.128 0.378 0.314 0.606 0.411 0.194 0.086 0.427 0.075 0.635 0.124 0.422 0.12 0.84 0.267 1.3 0.267h293.457c2.752 0 4.983-2.23 4.983-4.977v-45.006l-0.003-163.897z" />
<glyph unicode="&#xe608;" d="M269.351 377.719l-5.326-1.251c-6.137-0.809-11.883-2.853-16.383-5.306l-9.827-7.782h0.402c-5.728-5.319-10.637-11.472-13.090-19.244-0.819-1.655-1.648-3.691-2.055-5.74-0.409-2.038-0.409-3.686-0.819-5.735v-11.474c0-27.43-0.829-40.959-1.244-40.959h-29.481v-47.908h30.723v-140.887h56.921v139.649l36.438 1.244 6.161 47.9-42.184 0.425c0 0.404-0.416 10.236-0.416 30.298 0 4.513 1.226 8.185 3.269 11.472 1.233 1.226 2.473 2.855 4.091 3.707l3.297 1.606c0.802 0.428 2.451 0.829 4.080 0.829h0.834l15.556-2.055 6.555-0.811 6.557-0.416 5.326 48.327-52.034 4.112h-7.353z" />
<glyph unicode="&#xe609;" d="M310.708 88.203c-4.615 0-9.228 1.757-12.748 5.276l-137.119 137.008 140.453 139.99c7.052 7.032 18.474 7.012 25.512-0.042 7.030-7.058 7.010-18.476-0.044-25.512l-114.851-114.468 111.548-111.452c7.045-7.041 7.048-18.464 0.013-25.51-3.523-3.529-8.142-5.291-12.762-5.291z" />
<glyph unicode="&#xe60a;" d="M371.777 127.971v53.892l-65.579 91.551-79.865-92.85-30.517 22.725-38.959-48.048-20.13 11.69-27.269-38.959zM171.143 251.339c0-13.627-11.047-24.673-24.673-24.673-13.627 0-24.674 11.047-24.674 24.673 0 13.627 11.047 24.673 24.674 24.673 13.627 0 24.673-11.047 24.673-24.673zM410.199 273.387c0 1.024-0.827 1.852-1.852 1.852h-17.030c-1.021 0-1.852-0.827-1.852-1.852v-87.13c0-0.009 0.005-0.017 0.005-0.027v-70.13c0-2.637-2.137-4.772-4.774-4.772h-281.663c-2.638 0-4.772 2.135-4.772 4.772v200.506c0 2.638 2.135 4.773 4.772 4.773l237.606 0.025c1.023 0 1.852 0.827 1.852 1.852v17.030c0 1.021-0.829 1.852-1.852 1.852h-7.536v0.019h-230.070c-14.088 0-25.55-11.459-25.55-25.551v-200.506c0-14.087 11.463-25.55 25.55-25.55h281.663c14.087 0 25.552 11.463 25.552 25.55v120.784h-0.050v36.504zM442.783 342.201h-32.584v32.584c0 1.023-0.827 1.852-1.852 1.852h-17.030c-1.021 0-1.852-0.829-1.852-1.852v-32.582h-32.582c-1.024 0-1.852-0.831-1.852-1.852v-17.030c0-1.024 0.827-1.852 1.852-1.852h32.582v-32.582c0-1.024 0.831-1.852 1.852-1.852h17.030c1.024 0 1.852 0.827 1.852 1.852v32.582h32.584c1.023 0 1.852 0.827 1.852 1.852v17.030c-0.002 1.021-0.831 1.85-1.852 1.85z" />
</font></defs></svg>